<svg width="16px" height="16px" viewBox="0 0 16 16">
<path d="M15.8,8.5l-5.3,5.3C10,14.3,9.1,14,9.1,13.3v-3H4.8c-0.4,0-0.8-0.3-0.8-0.8v-3c0-0.4,0.3-0.8,0.8-0.8h4.3v-3
	c0-0.7,0.8-1,1.3-0.5l5.3,5.3C16.1,7.8,16.1,8.2,15.8,8.5z M6.1,13.7v-1.3c0-0.2-0.2-0.4-0.4-0.4H3c-0.6,0-1-0.5-1-1V5
	c0-0.6,0.5-1,1-1h2.7c0.2,0,0.4-0.2,0.4-0.4V2.3c0-0.2-0.2-0.4-0.4-0.4H3c-1.7,0-3,1.4-3,3V11c0,1.7,1.4,3,3,3h2.7
	C5.9,14.1,6.1,13.9,6.1,13.7z"/>
</svg>
