<svg width="16px" height="16px" viewBox="0 0 16 16">
    <path d="M15.8,13L9.2,1.7c-0.5-0.9-1.8-0.9-2.3,0L0.2,13c-0.5,0.9,0.1,2,1.2,2h13.3C15.7,15,16.3,13.9,15.8,13z M7.2,5.2
	c0-0.4,0.3-0.8,0.8-0.8c0.4,0,0.8,0.3,0.8,0.8v4C8.7,9.7,8.4,10,8,10c-0.4,0-0.8-0.3-0.8-0.8V5.2z M8,13c-0.5,0-1-0.4-1-1
	c0-0.5,0.4-1,1-1s1,0.4,1,1C9,12.6,8.5,13,8,13z"/>
</svg>
