<?xml version="1.0" encoding="utf-8"?>
<!-- Generator: Adobe Illustrator 27.3.1, SVG Export Plug-In . SVG Version: 6.00 Build 0)  -->
<svg version="1.1" id="Layer_1" xmlns="http://www.w3.org/2000/svg" xmlns:xlink="http://www.w3.org/1999/xlink" x="0px" y="0px"
	 viewBox="0 0 24 24" style="enable-background:new 0 0 24 24;" xml:space="preserve">
<path d="M19,15.2V4.8C19,4.3,18.7,4,18.2,4H8C6.3,4,5,5.3,5,7v10c0,1.7,1.3,3,3,3h10.2c0.4,0,0.8-0.3,0.8-0.8v-0.5
	c0-0.2-0.1-0.4-0.3-0.6c-0.1-0.5-0.1-1.9,0-2.3C18.9,15.7,19,15.5,19,15.2L19,15.2z M9,8.2C9,8.1,9.1,8,9.2,8h6.6
	C15.9,8,16,8.1,16,8.2v0.6C16,8.9,15.9,9,15.8,9H9.2C9.1,9,9,8.9,9,8.8V8.2z M9,10.2C9,10.1,9.1,10,9.2,10h6.6
	c0.1,0,0.2,0.1,0.2,0.2v0.6c0,0.1-0.1,0.2-0.2,0.2H9.2C9.1,11,9,10.9,9,10.8V10.2z M16.9,18H8c-0.6,0-1-0.4-1-1s0.5-1,1-1h8.9
	C16.9,16.5,16.9,17.5,16.9,18z"/>
</svg>
